Using network 'rinkeby'.

Running migration: 1_initial_migration.js
  Replacing Migrations...
  ... 0x37092fcea9644faf524ca50cb205bd578a63f460358ff236a218776c12d7a81c
  Migrations: 0x389304ca17f93da90130ac2b412e09c28df01934
Saving successful migration to network...
  ... 0xc2df84f3198530dc3c5ff7c17701dd0f3472a798b0a7dde9b143e63edf0ff821
Saving artifacts...
Running migration: 2_deploy_contracts.js
  Replacing SimpleStorage...
  ... 0x0ec4cfa9d3f5c982624593ee2e2d7b9640f1e00c1299801a04e69661090c8177
  SimpleStorage: 0x2f0dcef0a1a1bd46f2058c06cf8739f58ca5c690
  Replacing Orchestrator...
  ... 0x81926218fc588ec26a9e305471c0cb4b3c73804fe5eae5a6e29af19b4ea1170e
  Orchestrator: 0x4c60bbab3f111c57de4bcfff0107bb0ece88d2ee
Saving successful migration to network...
  ... 0xedb41b5ec974ae269bbda55602088961a0b9e9425657cc94efcfd07d392b6f31
Saving artifacts...